# -*- ck2.council_voting -*-

interaction_pattern_for = {
	icon = 18
	pattern_type = for
	
	break_non_aggression_pact = {
		pacifist = no
		custom_tooltip = {
			text = pattern_interaction_dislike_custom_tooltip
			hidden_tooltip = {
				NOT = {
					opinion = {
						who = FROMFROMFROM
						value = -24
					}
				}	
			}
		}
	}
	dissolve_alliance_interaction = {
		custom_tooltip = {
			text = pattern_interaction_dislike_custom_tooltip
			hidden_tooltip = {
				NOT = {
					opinion = {
						who = FROMFROMFROM
						value = -24
					}
				}	
			}
		}
	}
	form_non_aggression_pact_interaction = {
		OR = {
			pacifist = yes
			custom_tooltip = {
				text = pattern_interaction_like_custom_tooltip
				hidden_tooltip = {
					opinion = {
						who = FROMFROMFROM
						value = 25
					}	
				}
			}
		}
	}
	form_alliance_interaction = {
		custom_tooltip = {
			text = pattern_interaction_like_custom_tooltip
			hidden_tooltip = {
				opinion = {
					who = FROMFROMFROM
					value = 25
				}	
			}
		}
	}
	revoke_title_interaction = {
		custom_tooltip = {
			text = pattern_interaction_dislike_custom_tooltip
			hidden_tooltip = {
				NOT = {
					opinion = {
						who = FROMFROM
						value = -14
					}
				}
			}
		}
	}
	split_clan_interaction = {
		OR = {
			FROMFROM = { character = ROOT_FROM }
			custom_tooltip = {
				text = pattern_interaction_dislike_custom_tooltip
				hidden_tooltip = {
					NOT = {
						opinion = {
							who = FROMFROM
							value = -14
						}
					}
				}
			}
		}
	}
	absorb_clan_interaction = {
		custom_tooltip = {
			text = pattern_interaction_dislike_custom_tooltip
			hidden_tooltip = {
				NOT = {
					opinion = {
						who = FROMFROM
						value = -14
					}
				}
			}
		}
	}
	lollard_revoke_temple = {
		custom_tooltip = {
			text = pattern_interaction_dislike_custom_tooltip
			hidden_tooltip = {
				NOT = {
					opinion = {
						who = FROMFROMFROM
						value = -14
					}
				}
			}
		}
	}
	retract_vassal_interaction = {
		custom_tooltip = {
			text = pattern_interaction_dislike_custom_tooltip
			hidden_tooltip = {
				NOT = {
					opinion = {
						who = FROMFROM
						value = -14
					}
				}	
			}
		}
	}
	imprison_character_interaction = {
		custom_tooltip = {
			text = pattern_interaction_dislike_custom_tooltip
			hidden_tooltip = {
				NOT = {
					opinion = {
						who = FROMFROM
						value = -4
					}
				}
			}
		}
	}
	grant_landed_title_interaction = {
		OR = {
			custom_tooltip = {
				text = pattern_interaction_like_custom_tooltip
				hidden_tooltip = {
					opinion = {
						who = FROMFROM
						value = 25
					}
				}
			}
			custom_tooltip = {
				text = pattern_interaction_dont_dislike_unlanded_custom_tooltip
				hidden_tooltip = {
					FROMFROM = {
						is_landed = no
						reverse_opinion = {
							who = ROOT
							value = -10
						}
					}
				}
			}
		}
	}
	exile_imprisoned_interaction = {
		custom_tooltip = {
			text = pattern_interaction_dislike_custom_tooltip
			hidden_tooltip = {
				NOT = {
					opinion = {
						who = FROMFROM
						value = -9
					}
				}
			}
		}
	}
	execute_imprisoned_interaction = {
		pacifist = no
		custom_tooltip = {
			text = pattern_interaction_dislike_custom_tooltip
			hidden_tooltip = {
				NOT = {
					opinion = {
						who = FROMFROM
						value = -9
					}
				}
			}
		}
	}
	release_from_prison_interaction = {
		custom_tooltip = {
			text = pattern_interaction_like_custom_tooltip
			hidden_tooltip = {
				opinion = {
					who = FROMFROM
					value = 25
				}	
			}
		}
	}
	recruit_prisoner = {
		custom_tooltip = {
			text = pattern_interaction_like_custom_tooltip
			hidden_tooltip = {
				opinion = {
					who = FROMFROMFROM
					value = 25
				}	
			}
		}
	}
	emf_prisoner_house_arrest = {
		custom_tooltip = {
			text = pattern_interaction_like_custom_tooltip
			hidden_tooltip = {
				opinion = {
					who = FROMFROMFROM
					value = 25
				}	
			}
		}
	}
	emf_prisoner_oubliette = {
		OR = {
			pacifist = no
			trait = cruel
		}
		custom_tooltip = {
			text = pattern_interaction_dislike_custom_tooltip
			hidden_tooltip = {
				NOT = {
					opinion = {
						who = FROMFROMFROM
						value = -9
					}
				}
			}
		}
	}
	emf_prisoner_dungeon = {
		OR = {
			AND = {
				has_character_modifier = house_arrest
				custom_tooltip = {
					text = pattern_interaction_dislike_custom_tooltip
					hidden_tooltip = {
						NOT = {
							opinion = {
								who = FROMFROMFROM
								value = -9
							}
						}
					}
				}
			}
			AND = {
				has_character_modifier = the_oubliette
				custom_tooltip = {
					text = pattern_interaction_like_custom_tooltip
					hidden_tooltip = {
						opinion = {
							who = FROMFROMFROM
							value = 10
						}	
					}
				}
			}
		}
	}
	emf_prisoner_castration = {
		OR = {
			pacifist = no
			trait = cruel
		}
		custom_tooltip = {
			text = pattern_interaction_dislike_custom_tooltip
			hidden_tooltip = {
				NOT = {
					opinion = {
						who = FROMFROMFROM
						value = -9
					}
				}
			}
		}
	}
	emf_prisoner_blinding = {
		OR = {
			pacifist = no
			trait = cruel
		}
		custom_tooltip = {
			text = pattern_interaction_dislike_custom_tooltip
			hidden_tooltip = {
				NOT = {
					opinion = {
						who = FROMFROMFROM
						value = -9
					}
				}
			}
		}
	}
	emf_prisoner_zun_judgement = {
		pacifist = no
		custom_tooltip = {
			text = pattern_interaction_dislike_custom_tooltip
			hidden_tooltip = {
				NOT = {
					opinion = {
						who = FROMFROMFROM
						value = -9
					}
				}
			}
		}
	}
	kharijite_public_execution = {
		pacifist = no
		custom_tooltip = {
			text = pattern_interaction_dislike_custom_tooltip
			hidden_tooltip = {
				NOT = {
					opinion = {
						who = FROMFROMFROM
						value = -9
					}
				}
			}
		}
	}
	prisoner_brazen_bull = {
		pacifist = no
		custom_tooltip = {
			text = pattern_interaction_dislike_custom_tooltip
			hidden_tooltip = {
				NOT = {
					opinion = {
						who = FROMFROMFROM
						value = -9
					}
				}
			}
		}
	}
	prisoner_macabre_banquet = {
		pacifist = no
		custom_tooltip = {
			text = pattern_interaction_dislike_custom_tooltip
			hidden_tooltip = {
				NOT = {
					opinion = {
						who = FROMFROMFROM
						value = -9
					}
				}
			}
		}
	}
	prisoner_dragon_burning = {
		pacifist = no
		custom_tooltip = {
			text = pattern_interaction_dislike_custom_tooltip
			hidden_tooltip = {
				NOT = {
					opinion = {
						who = FROMFROMFROM
						value = -9
					}
				}
			}
		}
	}
}

interaction_pattern_against = {
	icon = 19
	pattern_type = against
	
	execute_imprisoned_interaction = {
		OR = {
			trait = kind
			pacifist = yes
		}
	}
	emf_prisoner_oubliette = {
		OR = {
			trait = kind
			AND = {
				pacifist = yes
				NOT = { trait = cruel }
			}
		}
	}
	emf_prisoner_castration = {
		OR = {
			trait = kind
			AND = {
				pacifist = yes
				NOT = { trait = cruel }
			}
		}
	}
	emf_prisoner_blinding = {
		OR = {
			trait = kind
			AND = {
				pacifist = yes
				NOT = { trait = cruel }
			}
		}
	}
	emf_prisoner_zun_judgement = {
		OR = {
			trait = kind
			pacifist = yes
		}
	}
	kharijite_public_execution = {
		OR = {
			trait = kind
			pacifist = yes
		}
	}
	prisoner_brazen_bull = {
		OR = {
			trait = kind
			pacifist = yes
		}
	}
	prisoner_macabre_banquet = {
		OR = {
			trait = kind
			pacifist = yes
		}
	}
	prisoner_dragon_burning = {
		OR = {
			trait = kind
			pacifist = yes
		}
	}
}
