# -*- ck2.objectives -*-

# Once EMF is independent of PB, this file should be renamed to be consistent with EMF naming standards

# Wealth
obj_amass_wealth = {
	type = character

	potential = {
		NOT = { has_character_flag = amassed_wealth }
		NOT = { has_character_flag = amassed_fortune }
		NOT = { has_character_flag = amassed_hoard }
	}
	allow = {
		is_adult = yes
		is_playable = yes
		OR = {
			is_landed = yes
			is_patrician = yes
		}
		NOT = { wealth = 200 }
		NOT = { trait = charitable }
		is_incapable = no
		NOT = { has_character_flag = amassed_wealth }
		NOT = { has_character_flag = amassed_fortune }
		NOT = { has_character_flag = amassed_hoard }
	}
	chance = {
		factor = 100

		modifier = {
			factor = 1.25
			trait = patient
		}
		modifier = {
			factor = 1.25
			trait = fortune_builder
		}
		modifier = {
			factor = 1.25
			trait = midas_touched
		}
		modifier = {
			factor = 10.0
			trait = greedy
		}
		modifier = {
			factor = 0.02
			trait = content
		}
		modifier = {
			factor = 0.1
			NOT = { yearly_income = 10 }
		}
		modifier = {
			factor = 0.5
			NOT = { yearly_income = 15 }
		}
		modifier = {
			factor = 0.5
			NOT = { yearly_income = 25 }
		}
	}
	creation_effect = {
		if = {
			limit = { ai = yes }
			add_character_modifier = {
				name = emf_objective_timer
				duration = 1825
				hidden = yes
			}
		}
	}
	success = {
		wealth = 500
		NOT = { has_character_modifier = small_loan }
		NOT = { has_character_modifier = medium_loan }
		NOT = { has_character_modifier = large_loan }
		NOT = { has_character_modifier = huge_loan }
	}
	abort = {
		OR = {
			trait = charitable
			is_incapable = yes
			AND = {
				ai = yes
				NOT = { has_character_modifier = emf_objective_timer }
			}
		}
	}
	abort_effect = {
		if = {
			limit = { ai = yes }
			remove_character_modifier = emf_objective_timer
		}
	}
	effect = {
		change_stewardship = 1
		hidden_tooltip = {
			set_character_flag = amassed_wealth
			if = {
				limit = { ai = yes }
				remove_character_modifier = emf_objective_timer
			}
		}
	}
}

obj_amass_fortune = {
	type = character

	potential = {
		NOT = { has_character_flag = amassed_hoard }
		NOT = { has_character_flag = amassed_fortune }
	}
	allow = {
		is_adult = yes
		is_playable = yes
		OR = {
			is_landed = yes
			is_patrician = yes
		}
		NOT = { wealth = 700 }
		OR = {
			wealth = 200
			has_character_flag = amassed_wealth
		}
		NOT = { trait = charitable }
		is_incapable = no
		NOT = { has_character_flag = amassed_hoard }
		NOT = { has_character_flag = amassed_fortune }
	}
	chance = {
		factor = 100

		modifier = {
			factor = 1.25
			trait = patient
		}
		modifier = {
			factor = 1.25
			trait = fortune_builder
		}
		modifier = {
			factor = 1.25
			trait = midas_touched
		}
		modifier = {
			factor = 10.0
			trait = greedy
		}
		modifier = {
			factor = 0.02
			trait = content
		}
		modifier = {
			factor = 0.01
			NOT = { yearly_income = 20 }
		}
		modifier = {
			factor = 0.5
			NOT = { yearly_income = 30 }
		}
		modifier = {
			factor = 0.5
			NOT = { yearly_income = 50 }
		}
	}
	creation_effect = {
		if = {
			limit = { ai = yes }
			add_character_modifier = {
				name = emf_objective_timer
				duration = 1825
				hidden = yes
			}
		}
	}
	success = {
		wealth = 1000
		NOT = { has_character_modifier = small_loan }
		NOT = { has_character_modifier = medium_loan }
		NOT = { has_character_modifier = large_loan }
		NOT = { has_character_modifier = huge_loan }
	}
	abort = {
		OR = {
			trait = charitable
			is_incapable = yes
			AND = {
				ai = yes
				NOT = { has_character_modifier = emf_objective_timer }
			}
		}
	}
	abort_effect = {
		if = {
			limit = { ai = yes }
			remove_character_modifier = emf_objective_timer
		}
	}
	effect = {
		if = {
			limit = {
				NOT = { has_character_flag = amassed_wealth }
			}
			change_stewardship = 1
			set_character_flag = amassed_wealth
		}
		prestige = 50
		hidden_tooltip = {
			set_character_flag = amassed_fortune
			if = {
				limit = { ai = yes }
				remove_character_modifier = emf_objective_timer
			}
		}
	}
}

obj_amass_hoard = {
	type = character

	potential = {
		NOT = { has_character_flag = amassed_hoard }
	}
	allow = {
		is_adult = yes
		is_playable = yes
		OR = {
			is_landed = yes
			is_patrician = yes
		}
		NOT = { wealth = 1500 }
		OR = {
			wealth = 700
			has_character_flag = amassed_fortune
		}
		NOT = { trait = charitable }
		is_incapable = no
		NOT = { has_character_flag = amassed_hoard }
	}
	chance = {
		factor = 100

		modifier = {
			factor = 1.25
			trait = patient
		}
		modifier = {
			factor = 1.25
			trait = fortune_builder
		}
		modifier = {
			factor = 1.25
			trait = midas_touched
		}
		modifier = {
			factor = 10.0
			trait = greedy
		}
		modifier = {
			factor = 0.02
			trait = content
		}
		modifier = {
			factor = 0.01
			NOT = { yearly_income = 50 }
		}
		modifier = {
			factor = 0.5
			NOT = { yearly_income = 75 }
		}
		modifier = {
			factor = 0.5
			NOT = { yearly_income = 100 }
		}
	}
	creation_effect = {
		if = {
			limit = { ai = yes }
			add_character_modifier = {
				name = emf_objective_timer
				duration = 1825
				hidden = yes
			}
		}
	}
	success = {
		wealth = 2500
		NOT = { has_character_modifier = small_loan }
		NOT = { has_character_modifier = medium_loan }
		NOT = { has_character_modifier = large_loan }
		NOT = { has_character_modifier = huge_loan }
	}
	abort = {
		OR = {
			trait = charitable
			is_incapable = yes
			AND = {
				ai = yes
				NOT = { has_character_modifier = emf_objective_timer }
			}
		}
	}
	abort_effect = {
		if = {
			limit = { ai = yes }
			remove_character_modifier = emf_objective_timer
		}
	}
	effect = {
		if = {
			limit = {
				NOT = { has_character_flag = amassed_wealth }
			}
			change_stewardship = 1
			set_character_flag = amassed_wealth
		}
		prestige = 100
		change_stewardship = 1
		hidden_tooltip = {
			set_character_flag = amassed_hoard
			if = {
				limit = { ai = yes }
				remove_character_modifier = emf_objective_timer
			}
		}
	}
}

# Piety
obj_publicly_pious = {
	type = character

	allow = {
		is_adult = yes
		is_playable = yes
		OR = {
			is_landed = yes
			is_patrician = yes
		}
		NOT = { piety = 200 }
		NOT = { trait = cruel }
		NOT = { trait = impaler }
		is_incapable = no
		NOT = { trait = paragon }
		NOT = { has_character_flag = achievement_become_paragon_of_virtue }
		NOT = { has_character_flag = publicly_pious }
		NOT = { has_character_flag = known_for_virtue }
		NOT = { religion_group = indian_group }
	}
	chance = {
		factor = 50

		modifier = {
			factor = 1.25
			trait = patient
		}
		modifier = {
			factor = 0.01
			NOR = {
				higher_real_tier_than = DUKE
				is_theocracy = yes
			}
		}
		modifier = {
			factor = 10.0
			has_education_learning_trigger = yes
		}
		modifier = {
			factor = 10.0
			trait = zealous
		}
	}
	creation_effect = {
		if = {
			limit = { ai = yes }
			add_character_modifier = {
				name = emf_objective_timer
				duration = 1825
				hidden = yes
			}
		}
	}
	success = {
		piety = 500
	}
	abort = {
		OR = {
			trait = cruel
			trait = impaler
			is_incapable = yes
			AND = {
				ai = yes
				NOT = { has_character_modifier = emf_objective_timer }
			}
		}
	}
	abort_effect = {
		if = {
			limit = { ai = yes }
			remove_character_modifier = emf_objective_timer
		}
	}
	effect = {
		change_learning = 1
		piety = 50
		hidden_tooltip = {
			set_character_flag = publicly_pious
			if = {
				limit = { ai = yes }
				remove_character_modifier = emf_objective_timer
			}
		}
	}
}

obj_known_for_virtue = {
	type = character

	allow = {
		is_adult = yes
		is_playable = yes
		OR = {
			is_landed = yes
			is_patrician = yes
		}
		NOT = { piety = 700 }
		OR = {
			piety = 200
			has_character_flag = publicly_pious
		}
		NOT = { trait = cruel }
		NOT = { trait = impaler }
		is_incapable = no
		NOT = { trait = paragon }
		NOT = { has_character_flag = achievement_become_paragon_of_virtue }
		NOT = { has_character_flag = known_virtue }
		NOT = { religion_group = indian_group }
	}
	chance = {
		factor = 50

		modifier = {
			factor = 1.25
			trait = patient
		}
		modifier = {
			factor = 0.01
			NOR = {
				higher_real_tier_than = DUKE
				is_theocracy = yes
			}
		}
		modifier = {
			factor = 10.0
			has_education_learning_trigger = yes
		}
		modifier = {
			factor = 10.0
			trait = zealous
		}
	}
	creation_effect = {
		if = {
			limit = { ai = yes }
			add_character_modifier = {
				name = emf_objective_timer
				duration = 1825
				hidden = yes
			}
		}
	}
	success = {
		piety = 1000
	}
	abort = {
		OR = {
			trait = cruel
			trait = impaler
			is_incapable = yes
			AND = {
				ai = yes
				NOT = { has_character_modifier = emf_objective_timer }
			}
		}
	}
	abort_effect = {
		if = {
			limit = { ai = yes }
			remove_character_modifier = emf_objective_timer
		}
	}
	effect = {
		if = {
			limit = {
				NOT = { has_character_flag = publicly_pious }
			}
			change_learning = 1
		}
		piety = 100
		religion_head = {
			opinion = {
				who = ROOT
				modifier = opinion_known_virtue
				months = 1200
			}
		}
		any_vassal = {
			limit = {
				is_theocracy = yes
				religion = ROOT
			}
			opinion = {
				who = ROOT
				modifier = opinion_known_virtue
				months = 1200
			}
		}
		hidden_tooltip = {
			set_character_flag = publicly_pious
			set_character_flag = known_virtue
			if = {
				limit = { ai = yes }
				remove_character_modifier = emf_objective_timer
			}
		}
	}
}

obj_become_paragon_of_virtue = {
	type = character

	allow = {
		is_adult = yes
		is_playable = yes
		OR = {
			is_landed = yes
			is_patrician = yes
		}
		NOT = { piety = 1500 }
		OR = {
			piety = 700
			has_character_flag = known_virtue
		}
		OR = {
			has_education_learning_trigger = yes
			has_pious_trait_trigger = yes
		}
		has_impious_trait_trigger = no
		is_incapable = no
		NOT = { trait = paragon }
		NOT = { has_character_flag = achievement_become_paragon_of_virtue }
		NOT = { religion_group = indian_group }
	}
	chance = {
		factor = 50

		modifier = {
			factor = 1.25
			trait = patient
		}
		modifier = {
			factor = 0.01
			NOR = {
				higher_real_tier_than = DUKE
				is_theocracy = yes
			}
		}
		modifier = {
			factor = 10.0
			has_education_learning_trigger = yes
		}
		modifier = {
			factor = 10.0
			trait = zealous
		}
	}
	creation_effect = {
		if = {
			limit = { ai = yes }
			add_character_modifier = {
				name = emf_objective_timer
				duration = 1825
				hidden = yes
			}
		}
	}
	success = {
		piety = 2500
	}
	abort = {
		OR = {
			has_impious_trait_trigger = yes
			is_incapable = yes
			AND = {
				ai = yes
				NOT = { has_character_modifier = emf_objective_timer }
			}
		}
	}
	abort_effect = {
		if = {
			limit = { ai = yes }
			remove_character_modifier = emf_objective_timer
		}
	}
	effect = {
		add_trait = paragon
		if = {
			limit = {
				NOT = { has_character_flag = publicly_pious }
			}
			change_learning = 1
		}
		change_learning = 1
		piety = 250
		if = {
			limit = {
				has_nickname = no
			}
			give_nickname = nick_the_holy
		}
		religion_authority = {
			modifier = paragon_of_virtue
			years = 50
		}
		hidden_tooltip = {
			set_character_flag = achievement_become_paragon_of_virtue
			if = {
				limit = { ai = yes }
				remove_character_modifier = emf_objective_timer
			}
		}
	}
}

# Prestige
obj_become_distinguished = {
	type = character

	allow = {
		is_adult = yes
		is_playable = yes
		OR = {
			is_landed = yes
			is_patrician = yes
		}
		NOT = { prestige = 200 }
		NOT = { trait = content }
		NOT = { trait = humble }
		is_incapable = no
		NOT = { has_character_flag = achievement_become_distinguished }
		NOT = { has_character_flag = achievement_become_exalted }
	}
	chance = {
		factor = 50
		modifier = {
			factor = 0.1
			lower_real_tier_than = KING
		}
		modifier = {
			factor = 1.25
			trait = patient
		}
		modifier = {
			factor = 5.0
			trait = ambitious
		}
		modifier = {
			factor = 2.5
			trait = envious
		}
		modifier = {
			factor = 10.0
			trait = proud
		}
	}
	creation_effect = {
		if = {
			limit = { ai = yes }
			add_character_modifier = {
				name = emf_objective_timer
				duration = 1825
				hidden = yes
			}
		}
	}
	success = {
		prestige = 500
	}
	abort = {
		OR = {
			trait = content
			trait = humble
			is_incapable = yes
			AND = {
				ai = yes
				NOT = { has_character_modifier = emf_objective_timer }
			}
		}
	}
	abort_effect = {
		if = {
			limit = { ai = yes }
			remove_character_modifier = emf_objective_timer
		}
	}
	effect = {
		change_diplomacy = 1
		prestige = 75
		hidden_tooltip = {
			set_character_flag = achievement_become_distinguished
			if = {
				limit = { ai = yes }
				remove_character_modifier = emf_objective_timer
			}
		}
	}
}

obj_seek_fame_glory = {
	type = character

	allow = {
		is_adult = yes
		is_playable = yes
		OR = {
			is_landed = yes
			is_patrician = yes
		}
		prestige < 700
		OR = {
			prestige >= 200
			has_character_flag = achievement_become_distinguished
		}
		OR = { 
			higher_real_tier_than = DUKE
			trait = ambitious
			trait = envious
			trait = proud
		}
		NOR = {
			trait = content
			trait = humble
			trait = shy
		}
		is_incapable = no
		NOT = { has_character_flag = achievement_become_exalted }
		NOT = { has_character_flag = achievement_fame_glory }
	}
	chance = {
		factor = 50

		modifier = {
			factor = 1.25
			trait = patient
		}
		modifier = {
			factor = 0.01
			lower_real_tier_than = KING
		}
		modifier = {
			factor = 5.0
			trait = ambitious
		}
		modifier = {
			factor = 2.5
			trait = envious
		}
		modifier = {
			factor = 10.0
			trait = proud
		}
	}
	creation_effect = {
		if = {
			limit = { ai = yes }
			add_character_modifier = {
				name = emf_objective_timer
				duration = 1825
				hidden = yes
			}
		}
	}
	success = {
		prestige = 1000
	}
	abort = {
		OR = {
			trait = content
			trait = humble
			trait = shy
			is_incapable = yes
			AND = {
				ai = yes
				NOT = { has_character_modifier = emf_objective_timer }
			}
		}
	}
	abort_effect = {
		if = {
			limit = { ai = yes }
			remove_character_modifier = emf_objective_timer
		}
	}
	effect = {
		prestige = 150
		if = {
			limit = {
				NOT = { has_character_flag = achievement_become_distinguished }
			}
			change_diplomacy = 1
		}
		any_vassal = {
			opinion = {
				who = ROOT
				modifier = opinion_fame_glory
				years = 100
			}
		}
		hidden_tooltip = {
			set_character_flag = achievement_fame_glory
			set_character_flag = achievement_become_distinguished
			if = {
				limit = { ai = yes }
				remove_character_modifier = emf_objective_timer
			}
		}
	}
}

obj_become_exalted = {
	type = character

	allow = {
		is_adult = yes
		is_playable = yes
		OR = {
			is_landed = yes
			is_patrician = yes
		}
		prestige < 2000
		OR = {
			prestige >= 700
			has_character_flag = achievement_fame_glory
		}
		OR = { 
			higher_real_tier_than = DUKE
			trait = ambitious
			trait = envious
			trait = proud
		}
		NOR = {
			trait = content
			trait = humble
			trait = shy
		}
		is_incapable = no
		NOT = { has_character_flag = achievement_become_exalted }
	}
	chance = {
		factor = 50

		modifier = {
			factor = 1.25
			trait = patient
		}
		modifier = {
			factor = 0.01
			lower_real_tier_than = KING
		}
		modifier = {
			factor = 5.0
			trait = ambitious
		}
		modifier = {
			factor = 2.5
			trait = envious
		}
		modifier = {
			factor = 10.0
			trait = proud
		}
	}
	creation_effect = {
		if = {
			limit = { ai = yes }
			add_character_modifier = {
				name = emf_objective_timer
				duration = 1825
				hidden = yes
			}
		}
	}
	success = {
		prestige = 3000
	}
	abort = {
		OR = {
			trait = content
			trait = humble
			trait = shy
			is_incapable = yes
			AND = {
				ai = yes
				NOT = { has_character_modifier = emf_objective_timer }
			}
		}
	}
	abort_effect = {
		if = {
			limit = { ai = yes }
			remove_character_modifier = emf_objective_timer
		}
	}
	effect = {
		if = {
			limit = {
				NOT = { has_character_flag = achievement_become_distinguished }
			}
			change_diplomacy = 1
		}
		change_diplomacy = 1
		prestige = 250
		if = {
			limit = {
				has_nickname = no
			}
			give_nickname = nick_the_great
		}
		hidden_effect = {
			any_vassal = {
				remove_opinion = { who = ROOT modifier = opinion_fame_glory }
			}
		}
		any_vassal = {
			opinion = {
				who = ROOT
				modifier = opinion_exalted
				years = 100
			}
		}
		hidden_tooltip = {
			set_character_flag = achievement_become_exalted
			if = {
				limit = { ai = yes }
				remove_character_modifier = emf_objective_timer
			}
		}
	}
}
