# -*- ck2.decisions -*-

targeted_decisions = {

	release_tributary = {
		ai_target_filter = self
		ai = no

		from_potential = {
			ai = no
		}
		potential = {
			is_tributary = yes
			suzerain = { character = FROM }
		}
		allow = {
			war = no
			FROM = {
				war = no
				custom_tooltip = { text = NEEDS_200_PRESTIGE_COST hidden_tooltip = { prestige = 200 } }
			}
		}
		effect = {
			remove_tributary = FROM
			FROM = {
				prestige = -200
			}
		}
		ai_will_do = {
			factor = 0
		}
	}

	break_non_aggression_pact = {
		ai_target_filter = self
		ai = no

		from_potential = {
			ai = no
		}
		potential = {
			OR = {
				is_landed = yes
				is_patrician = yes
			}
			has_non_aggression_pact_with = FROM
		}
		allow = {
			war = no
			FROM = {
				war = no
				custom_tooltip = { text = NEEDS_200_PRESTIGE_COST hidden_tooltip = { prestige = 200 } }
			}
		}
		effect = {
			opinion = {
				who = FROM
				modifier = broken_non_aggression_pact
			}
			FROM = {
				prestige = -200
				add_character_modifier = {
					name = broken_non_aggression_pact_char_modifier
					years = 10
				}
			}

			FROM = {
				set_truce = {
					who = ROOT
					years = 5
				}
			}
		}
		ai_will_do = {
			factor = 0
		}
	}

	recruit_prisoner = {
		filter = court
		ai_target_filter = court
		ai = no

		from_potential = {
			ai = no
			has_dlc = "Reapers"
		}

		potential = {
			prisoner = yes
			is_ruler = no
			is_adult = yes
			is_heir = no
			is_married = no
			NOT = {	is_incapable = yes }
			host = { character = FROM }
			liege = { NOT = { character = FROM } }
		}
		allow = {
			liege = {
				NOR = {
					is_lover = ROOT
					is_friend = ROOT
					is_child_of = ROOT
					is_mother = ROOT
					is_father = ROOT
				}
			}
			NOT = {
				is_rival = FROM
			}
			opinion_diff = {
				first = FROM
				second = liege
				value = -25
			}
		}
		effect = {
			hidden_tooltip = { liege = { character_event = { id = RIP.29700 } } }
			if = {
				limit = { is_consort = yes }
				consort = {
					remove_consort = ROOT
				}
			}
			if = {
				limit = { has_character_flag = originated_from_chinese_court }
				set_character_flag = ignore_refund
			}
			move_character = FROM
			prisoner = no
		}
		ai_will_do = {
			factor = 0
		}
	}

	# The war is in FROMFROM
	interfere_in_vassal_war_attacker = {
		filter = vassal_wars
		ai_target_filter = vassal_wars
		ai = no

		from_potential = {
			ai = no
			has_dlc = "Reapers"
		}
		potential = {
			FROMFROM = { attacker = { character = ROOT } }
			NOR = {
				owes_favor_to = FROM
				has_opinion_modifier = {
					who = FROM
					modifier = opinion_interfered_in_war
				}
			}
		}
		allow = {
			FROM = {
				custom_tooltip = { text = NEEDS_100_PRESTIGE_COST hidden_tooltip = { prestige = 100 } }
				is_incapable = no
				prisoner = no
				in_seclusion = no
			}
		}
		effect = {
			FROM = { prestige = -100 }
			FROMFROM = {
				defender = {
					save_event_target_as = target_defender
				}
			}
			letter_event = { id = RIP.30000 days = 3 }

			hidden_tooltip = {
				opinion = {
					who = FROM
					modifier = opinion_interfered_in_war
					years = 5
				}
			}
		}
		ai_will_do = {
			factor = 0
		}
	}

	# The war is in FROMFROM
	interfere_in_vassal_war_attacker_use_favor = {
		filter = vassal_wars
		ai_target_filter = vassal_wars
		ai = no

		from_potential = {
			ai = no
			has_dlc = "Reapers"
			has_dlc = "Conclave"
		}
		potential = {
			FROMFROM = { attacker = { character = ROOT } }
			owes_favor_to = FROM
		}
		allow = {
			FROM = {
				is_incapable = no
				prisoner = no
				in_seclusion = no
			}
		}
		effect = {
			FROMFROM = { defender = { save_event_target_as = target_defender } }

			reverse_remove_favor = FROM

			letter_event = { id = RIP.30010 days = 3 }
		}
		ai_will_do = {
			factor = 0
		}
	}

	# The war is in FROMFROM
	interfere_in_vassal_war_defender = {
		filter = vassal_wars
		ai_target_filter = vassal_wars
		ai = no

		from_potential = {
			ai = no
			has_dlc = "Reapers"
		}
		potential = {
			FROMFROM = { defender = { character = ROOT } }
			NOR = {
				owes_favor_to = FROM
				has_opinion_modifier = {
					who = FROM
					modifier = opinion_interfered_in_war
				}
			}
		}
		allow = {
			FROM = {
				custom_tooltip = { text = NEEDS_200_PRESTIGE_COST hidden_tooltip = { prestige = 200 } }
				is_incapable = no
				prisoner = no
				in_seclusion = no
			}
		}
		effect = {
			FROM = { prestige = -200 }
			FROMFROM = { attacker = { save_event_target_as = target_attacker } }
			letter_event = { id = RIP.30020 days = 3 }

			hidden_tooltip = {
				opinion = {
					who = FROM
					modifier = opinion_interfered_in_war
					years = 5
				}
			}
		}
		ai_will_do = {
			factor = 0
		}
	}

	# The war is in FROMFROM
	interfere_in_vassal_war_defender_use_favor = {
		filter = vassal_wars
		ai_target_filter = vassal_wars
		ai = no

		from_potential = {
			ai = no
			has_dlc = "Reapers"
			has_dlc = "Conclave"
		}
		potential = {
			FROMFROM = { defender = { character = ROOT } }
			owes_favor_to = FROM
		}
		allow = {
			FROM = {
				is_incapable = no
				prisoner = no
				in_seclusion = no
			}
		}
		effect = {
			FROMFROM = { attacker = { save_event_target_as = target_attacker } }

			reverse_remove_favor = FROM

			letter_event = { id = RIP.30030 days = 3 }
		}
		ai_will_do = {
			factor = 0
		}
	}

	demand_gavelkind = {
		filter = vassals
		ai_target_filter = vassals
		ai = no

		from_potential = {
			always = no # INACTIVE
			ai = no
			has_dlc = "Reapers"
			is_feudal = yes
			OR = {
				tier = EMPEROR
				emf_imperial_government = no
			}
			is_vice_royalty = no
			prisoner = no
			is_incapable = no
		}
		potential = {
			is_playable = yes
			vassal_of = FROM
			NOT = { character = FROM }
			is_law_potential = succ_gavelkind
			NOR = {
				has_law = succ_gavelkind
				owes_favor_to = FROM
				has_opinion_modifier = { who = FROM name = opinion_demanded_succ_law_change }
			}
			is_feudal = yes
			mercenary = no
			holy_order = no
			is_vice_royalty = no
			prisoner = no
			is_incapable = no
		}
		allow = {
			FROM = {
				custom_tooltip = { text = NEEDS_150_PRESTIGE_COST hidden_tooltip = { prestige = 150 } }
				is_incapable = no
				prisoner = no
				in_seclusion = no
			}
		}
		effect = {
			prestige = -150
			letter_event = { id = RIP.30040 days = 3 }

			hidden_tooltip = {
				opinion = {
					who = FROM
					modifier = opinion_demanded_succ_law_change
					years = 5
				}
			}
		}
		ai_will_do = {
			factor = 0
		}
	}

	demand_gavelkind_use_favor = {
		filter = vassals
		ai_target_filter = vassals
		
		only_playable = yes

		from_potential = {
			always = no # INACTIVE
			ai = no
			has_dlc = "Reapers"
			has_dlc = "Conclave"
			is_feudal = yes
			OR = {
				tier = EMPEROR
				emf_imperial_government = no
			}
			is_vice_royalty = no
			prisoner = no
			is_incapable = no
		}
		potential = {
			is_playable = yes
			vassal_of = FROM
			NOT = { character = FROM }
			is_law_potential = succ_gavelkind
			NOT = { has_law = succ_gavelkind }
			owes_favor_to = FROM
			NOT = { has_opinion_modifier = { who = FROM name = opinion_demanded_succ_law_change } }
			is_feudal = yes
			mercenary = no
			holy_order = no
			is_vice_royalty = no
			prisoner = no
			is_incapable = no
		}
		allow = {
			FROM = {
				custom_tooltip = { text = NEEDS_100_PRESTIGE_COST hidden_tooltip = { prestige = 100 } }
				is_incapable = no
				prisoner = no
				in_seclusion = no
			}
		}
		effect = {
			prestige = -100
			letter_event = { id = RIP.30050 days = 3 }
			hidden_tooltip = {
				opinion = {
					who = FROM
					modifier = opinion_demanded_succ_law_change
					years = 5
				}
			}
		}
		ai_will_do = {
			factor = 0
		}
	}

	ask_to_leave_court = {
		filter = court
		ai_target_filter = self
		ai = no

		potential = {
			NOT = { character = FROM }
			vassal_of = FROM
		}
		allow = {
			FROM = {
				custom_tooltip = { text = NEEDS_10_PRESTIGE_COST hidden_tooltip = { prestige = 10 } }
				has_regent = no
				prisoner = no
			}
			can_be_asked_to_leave_court_trigger = yes
			trigger_if = {
				limit = {
					is_married = yes
					any_spouse = {
						vassal_of = FROM
						NOT = { character = FROM }
					}
				}
				# custom tooltip for their spouse not being eligble for leaving the court
				custom_tooltip = {
					text = their_spouse_must_be_allow_to_leave_tt
					any_spouse = {
						hidden_trigger = {
							vassal_of = FROM
							NOT = { character = FROM }
						}
						can_be_asked_to_leave_court_trigger = yes
					}
				}
			}
		}
		effect = {
			FROM = { prestige = -10 }
			if = {
				limit = { court_is_max_crowded_trigger = yes }
				opinion = {
					modifier = opinion_was_ordered_to_leave_crowded_court
					who = FROM
					years = 10
				}
				any_spouse = {
					limit = { vassal_of = FROM }
					opinion = {
						modifier = opinion_was_ordered_to_leave_crowded_court
						who = FROM
						years = 10
					}
				}
			}
			else = {
				opinion = {
					modifier = opinion_disappointed
					who = FROM
					years = 10
				}
				any_spouse = {
					limit = { vassal_of = FROM }
					opinion = {
						modifier = opinion_disappointed
						who = FROM
						years = 10
					}
				}
			}
			if = {
				limit = { religion = FROM }
				if = {
					limit = {
						FROM = {
							any_realm_lord = {
								NOT = { character = FROM }
							}
						}
					}
					custom_tooltip = { text = emf_court_banishment_tt_samerel }
				}
				else = {
					custom_tooltip = { text = emf_court_banishment_tt_samerel_noplace }
				}
			}
			else = {
				custom_tooltip = { text = emf_court_banishment_tt_difrel }
			}
			opinion = {
				modifier = opinion_banished_from_court
				who = FROM
				months = 60
			}
			any_spouse = {
				limit = { vassal_of = FROM }
				opinion = {
					modifier = opinion_disappointed
					who = FROM
					years = 10
				}
			}
			hidden_tooltip = {
				if = { # Same religion as liege
					limit = { religion = FROM }
					FROM = {
						random_playable_ruler = {
							limit = {
								NOT = { character = ROOT_FROM }
								same_realm = ROOT_FROM
							}
							# Go to dynasty members in realm first
							preferred_limit = {
								NOT = { dynasty = none }
								dynasty = ROOT
								their_opinion = { who = ROOT value = 10 }
							}
							# If no dynasty match, pick a random playable in realm
							preferred_limit = {
								religion = ROOT
								their_opinion = { who = ROOT value = 10 }
							}
							preferred_limit = {
								their_opinion = { who = ROOT value = 10 }
							}
							ROOT = {
								move_character = PREV
								any_spouse = {
									limit = { vassal_of = FROM }
									move_character = PREVPREV
								}
								any_child = {
									limit = {
										is_adult = no
										vassal_of = FROM
										is_primary_heir = no
									}
									move_character = PREVPREV
								}
							}
							break = yes
						}
						ROOT = { banish = yes } # If all else fails, just leave
						break = yes
					}
				}
				# If different religion, go to realm with same faith if possible
				random_playable_ruler = {
					limit = {
						NOT = { character = FROM }
						religion = ROOT
					}
					preferred_limit = {
						their_opinion = { who = ROOT value = 10 }
					}
					ROOT = {
						move_character = PREV
						any_spouse = {
							limit = { vassal_of = FROM }
							move_character = PREVPREV
						}
						any_child = {
							limit = {
								is_adult = no
								vassal_of = FROM
								is_primary_heir = no
							}
							move_character = PREVPREV
						}
					}
					break = yes
				}
				banish = yes # Otherwise, just get the heck out
			}
		}
	}

	exchange_land_for_hospital = {
		filter = all
		ai_target_filter = all
		ai = no

		from_potential = {
			has_dlc = "Reapers"
			#capital has space and no hospital
			capital_scope = {
				num_of_empty_holdings = 1
				NOT = { hospital_level = 1 }
			}
			NOR = {
				is_nomadic = yes
				is_tribal = yes
			}
		}
		potential = {
			is_playable = yes
			is_adult = yes
			religion = FROM
			emf_cb_unexpelled_holy_order = yes
			NOR = {
				has_landed_title = k_teutonic_state
				AND = {
					has_landed_title = d_teutonic_order
					has_global_flag = northern_crusades_active
				}
			}
		}
		allow = {
			FROM = {
				custom_tooltip = { text = NEEDS_300_PIETY_COST hidden_tooltip = { piety = 300 } }
				capital_scope = { NOT = { any_province_holding = { is_occupied = yes } } }
			}
		}
		effect = {
			#lose piety, holy order builds castle and hospital
			FROM = {
				piety = -300
				capital_scope = {
					build_holding = {
						type = castle
						holder = ROOT
					}
					build_holding = {
						type = hospital
						holder = FROM
					}
				}
			}
		}
		ai_will_do = {
			factor = 0
		}
	}

	commit_suicide_immortal = {
		filter = self
		ai_target_filter = none
		ai = no

		potential = {
			ai = no
			is_adult = yes
			prisoner = no
			immortal = yes
			OR = {
				trait = depressed
				age = 100
			}
		}
		allow = {
			immortal = yes
			OR = {
				trait = depressed
				age = 100
			}
			custom_tooltip = {
				NOT = { has_character_flag = attempting_suicide }
				text = attempting_suicide_tooltip
			}
		}
		effect = {
			if = {
				limit = { has_dlc = "Reapers" }

				set_character_flag = attempting_suicide

				if = {
					limit = { is_incapable = no }
					character_event = { id = RIP.30200 }
				}
				else = {
					character_event = { id = RIP.30210 }
				}
			}
			else = {
				prestige = -200

				add_character_modifier = {
					modifier = suicide
					duration = -1
				}
				death = { death_reason = death_suicide }
			}
		}
		ai_will_do = {
			factor = 0
		}
	}
}

decisions = {
	seek_treatment = {
		only_playable = yes
		is_high_prio = yes

		potential = {
			is_playable = yes
			NOT = { trait = troubled_pregnancy } #Treatment handled by special event chain.
			OR = {
				trait = has_tuberculosis
				trait = has_typhoid_fever
				trait = has_typhus
				trait = has_bubonic_plague
				trait = has_measles
				trait = has_small_pox
				trait = has_aztec_disease
				trait = syphilitic
				trait = flu
				trait = dysentery
				trait = gout
				trait = food_poisoning
				trait = rabies
				trait = cancer
				trait = pneumonic
				num_of_symptoms > 0
			}
			has_assigned_minor_title = title_court_physician
			emf_hiprio_decision_basic_potential = yes
		}
		allow = {
			prisoner = no
			custom_tooltip = {
				text = seek_treatment_tooltip_2
				OR = {
					NOT = { has_character_flag = being_treated }
					had_character_flag = { flag = being_treated days = 20 }
				}
				OR = {
					AND = {	#if you have a developed disease and want further treatment
						character_disease_trigger = yes
						OR = {
							NOT = { has_character_flag = recent_treatment }
							had_character_flag = { flag = recent_treatment days = 90 }
						}
					}
					AND = {	#if you have multiple symptoms and want to seek further treatment
						num_of_symptoms = 2
						OR = {
							NOT = { has_character_flag = recent_treatment }
							had_character_flag = { flag = recent_treatment days = 30 }
						}
					}
					AND = { #if your treatment failed and you want to try again
						character_disease_trigger = no
						num_of_symptoms = 1
						OR = {
							had_character_flag = { flag = disease_not_serious days = 10 } #anti-spam delay since event should handle this normally
							had_character_flag = { flag = developing_illness days = 10 }
						}
						OR = {
							NOT = { has_character_flag = recent_treatment }
							had_character_flag = { flag = recent_treatment days = 30 }
						}
						NOR = {
							has_character_modifier = successful_treatment_1
							has_character_modifier = successful_treatment_2
							has_character_modifier = successful_treatment_3
							has_character_modifier = failed_treatment_1
							has_character_modifier = failed_treatment_2
							has_character_modifier = mystic_treatment_decent
							has_character_modifier = mystic_treatment_poor
							has_character_modifier = mystic_treatment_terrible
							has_character_modifier = symptom_treatment_1
							has_character_modifier = symptom_treatment_2
							has_character_modifier = symptom_treatment_3
							has_character_modifier = symptom_treatment_4
						}
					}
				}
			}
			custom_tooltip = {
				text = seek_treatment_tooltip_1
			}
			custom_tooltip = {
				text = seek_treatment_tooltip_3
				hidden_tooltip = {
					NOR = {
						has_character_modifier = mystic_treatment_decent
						has_character_modifier = successful_treatment_1
						has_character_modifier = successful_treatment_2
						has_character_modifier = successful_treatment_3
					}
				}
			}
		}
		effect = {
			set_character_flag = recent_treatment
			hidden_tooltip = {
				remove_treatment_modifiers_effect = yes
			}
			custom_tooltip = {
				text = seek_treatment_tooltip_4
				hidden_tooltip = {
					random_courtier_or_vassal = {
						limit = {
							is_adult = yes
							has_minor_title = title_court_physician
							liege = {
								character = ROOT
							}
						}
						character_event = { id = RIP.11031 }
					}
				}
			}
		}
		ai_will_do = {
			factor = 0.25

			modifier = {
				factor = 2
				OR = {
					trait = craven
					trait = paranoid
				}
			}
			modifier = {
				factor = 2.0
				NOT = { health = 5 }
			}
			modifier = {
				factor = 2.0
				NOT = { health = 4 }
			}
			modifier = {
				factor = 2.0
				NOT = { health = 3 }
			}
			modifier = {
				factor = 2.0
				NOT = { health = 2 }
			}
			modifier = {
				factor = 2.0
				NOT = { health = 1 }
			}
			modifier = {
				factor = 100
				health <= 0
			}
			modifier = {
				factor = 0
				OR = { #characters don't want to seek treatment when they have a decent one already
					has_character_modifier = symptom_treatment_3
					has_character_modifier = symptom_treatment_4
					has_character_modifier = successful_treatment_2
					has_character_modifier = successful_treatment_3
				}
			}
		}
	}

	employ_court_physician = { #TODO: move this into EMF employment decisions menu
		only_playable = yes
		ai_check_interval = 3

		potential = {
			has_dlc = "Reapers"
			NOT = { has_assigned_minor_title = title_court_physician }
			NOR = {
				is_tribal = yes
				is_nomadic = yes
			}
			OR = {
				mercenary = no
				ai = no
			}
			OR = {
				higher_real_tier_than = COUNT
				is_patrician = yes
				ai = no
				is_ill = yes
				num_of_symptoms > 0
				wealth = 200
			}
			OR = {
				scaled_wealth = { value = 0.35 min = 10 max = 70 }
				ai = no
			}
			emf_isolated_character = no
			emf_hiprio_decision_basic_potential = yes
		}
		allow = {
			NOR = {
				has_character_modifier = in_seclusion
				has_assigned_minor_title = title_court_physician
			}
			custom_tooltip = {
				text = 3_year_physician_cooldown
				hidden_tooltip = {
					OR = {
						ai = yes
						NOT = { has_character_flag = 3_year_physician_cooldown }
						had_character_flag = { flag = 3_year_physician_cooldown days = 1095 }
					}
				}
			}
		}
		effect = {
			custom_tooltip = {
				text = employ_court_physician_tooltip
				hidden_tooltip = {
					character_event = { id = RIP.11050 }
					clr_character_flag = 3_year_physician_cooldown
					set_character_flag = 3_year_physician_cooldown
				}
			}
		}
		ai_will_do = {
			factor = 1.0

			modifier = {
				factor = 0.5
				lower_real_tier_than = DUKE
			}
			modifier = {
				factor = 0.5
				lower_real_tier_than = KING
			}
			modifier = {
				factor = 2
				trait = paranoid
			}
			modifier = {
				factor = 10
				OR = {
					is_ill = yes
					num_of_symptoms > 0
				}
			}
			modifier = {
				factor = 2
				capital_scope = {
					OR = {
						has_epidemic = yes
						any_neighbor_province = {
							AND = {
								has_epidemic = yes
								any_neighbor_province = { has_epidemic = yes }
							}
						}
					}
				}
			}
		}
	}


	#Seclusion

	shut_the_gates = {
		only_rulers = yes
		is_high_prio = yes

		potential = {
			has_dlc = "Reapers"
			OR = {
				is_landed = yes
				is_patrician = yes
			}
			is_inaccessible_trigger = no
			emf_hiprio_decision_basic_potential = yes
		}

		allow = {
			prisoner = no
			custom_tooltip = {
				text = is_not_busy_trigger_tooltip
				hidden_tooltip = { NOT = { has_character_flag = do_not_disturb } }
			}
			OR = {
				is_patrician = yes
				capital_scope = {
					has_castle = yes
				}
				capital_holding = {
					holding_type = tribal
					has_building = tb_hillfort_4
				}
				num_of_demesne_castles >= 1
			}
			OR = {
				trait = paranoid
				custom_tooltip = {
					text = epidemic_present_tooltip
					hidden_tooltip = {
						capital_scope = {
							OR = {
								has_epidemic = yes
								any_neighbor_province = {
									AND = {
										has_epidemic = yes
										any_neighbor_province = { has_epidemic = yes }
									}
								}
							}
						}
					}
				}
			}
			NOR = {
				has_character_modifier = out_traveling
				has_character_modifier = recently_opened_gates
			}
		}
		effect = {
			#Achievement flag
			if = {
				limit = { ai = no }
				set_character_flag = achievement_no_solicitors
			}
			if = {
				limit = { has_minor_title = title_commander }
				remove_title = title_commander
			}
			set_character_flag = do_not_disturb
			custom_tooltip = { text = shut_the_gates_info_tooltip }
			add_character_modifier = {
				name = in_seclusion
				duration = -1
			}
			if = { # If you are a councillor, stop working and return home
				limit = {
					host = { NOT = { character = ROOT } }
					OR = {
						is_councillor = yes
						has_minor_title = title_councilmember_king
						has_minor_title = title_councilmember_emperor
					}
				}
				force_host = ROOT
			}
			hidden_tooltip = {
				character_event = { id = RIP.12000 }
				any_courtier = { # Unlanded councillors stop working in order to go into seclusion with their liege
					limit = {
						prisoner = no
						is_councillor = yes
						is_landed = no
						is_patrician = no
						vassal_of = ROOT
						NOT = { character = ROOT }
					}
					add_character_modifier = {
						name = in_seclusion
						duration = -1
					}
				}
				any_courtier = { # Unlanded non-councillors join their liege in seclusion
					limit = {
						prisoner = no
						is_councillor = no
						is_landed = no
						is_patrician = no
						vassal_of = ROOT
						NOT = { character = ROOT }
					}
					add_character_modifier = {
						name = in_seclusion
						duration = -1
					}
				}
				any_courtier = { # Landed councillors return home while you, their liege, is in seclusion
					limit = {
						prisoner = no
						OR = {
							is_councillor = yes
							has_minor_title = title_councilmember_king
							has_minor_title = title_councilmember_emperor
						}
						is_landed = yes
						vassal_of = ROOT
						NOT = { character = ROOT }
					}
					force_host = THIS
				}
				any_courtier = { # Landed children being educated in your court are sent home, with the guardianship ending
					limit = {
						prisoner = no
						is_landed = yes
						is_adult = no
						has_guardian = yes
					}
					remove_guardian = yes
				}
				if = { #If you are getting educated elsewhere, then go home to be secluded
					limit = {
						is_adult = no
						is_abroad = yes
					}
					remove_guardian = yes
					force_host = ROOT
				}
				any_vassal = {
					character_event = { id = RIP.12001 days = 7 random = 7 }
				}
				if = { #Notify employer that councillor is going into seclusion
					limit = {
						is_councillor = yes
						liege = { ai = no }
					}
					liege = { character_event = { id = RIP.12101 days = 1 } }
				}
			}
		}
		ai_will_do = {
			factor = 0.20
			
			modifier = {
				factor = 0
				NOT = {
					capital_scope = {
						OR = {
							has_epidemic = yes
							any_neighbor_province = { has_epidemic = yes }
						}
					}
				}
			}

			modifier = {
				factor = 0.5
				trait = brave
			}
			modifier = {
				factor = 0.5
				trait = just
			}
			modifier = {
				factor = 0.5
				trait = stubborn
			}
			modifier = {
				factor = 0.5
				trait = zealous
			}
			modifier = {
				factor = 2
				trait = depressed
			}
			modifier = {
				factor = 2
				trait = stressed
			}
			modifier = {
				factor = 5
				trait = craven
			}
			modifier = {
				factor = 10
				trait = paranoid
			}
			modifier = {
				factor = 2
				capital_scope = { has_epidemic = yes }
			}
			modifier = {
				factor = 2
				capital_scope = { disease = typhus }
			}
			modifier = {
				factor = 50
				capital_scope = { disease = bubonic_plague }
			}
		}
	}

	open_the_gates = {
		only_rulers = yes
		is_high_prio = yes

		potential = {
			is_ruler = yes
			has_character_modifier = in_seclusion
		}

		allow = {
			has_character_modifier = in_seclusion
		}

		effect = {
			clr_character_flag = do_not_disturb
			clr_character_flag = exposed_to_outside
			clr_character_flag = seclusion_piling_corpses
			clr_character_flag = seclusion_lazy_seduction
			clr_character_flag = seclusion_nightmares
			clr_character_flag = seclusion_gained_friend
			clr_character_flag = seclusion_child_has_lover
			clr_character_flag = seclusion_tunnel
			clr_character_flag = seclusion_food_events

			custom_tooltip = { text = open_the_gates_info_tooltip }
			remove_character_modifier = in_seclusion
			add_character_modifier = {
				name = recently_opened_gates
				duration = 365
			}
			hidden_tooltip = {
				clr_character_flag = seclusion_events_on
				character_event = { id = RIP.11557 days = 7 random = 21} #clears starvation modifiers
				any_courtier = {
					clr_character_flag = seclusion_events_on
					remove_character_modifier = in_seclusion
					character_event = { id = RIP.11557 days = 7 random = 21} #clears starvation modifiers
				}
				any_vassal = {
					limit = {
						OR = {
							is_councillor = yes
							has_minor_title = title_councilmember_king
							has_minor_title = title_councilmember_emperor
						}
						is_landed = yes
						vassal_of = ROOT
						NOT = { has_character_modifier = in_seclusion }
						host = { NOT = { character = ROOT } }
					}
					force_host = ROOT
				}
			}
			if = { # Rejoin your liege's court if both of you are not in seclusion
				limit = {
					OR = {
						is_councillor = yes
						has_minor_title = title_councilmember_king
						has_minor_title = title_councilmember_emperor
					}
					NOT = { liege = { has_character_modifier = in_seclusion } }
				}
				liege = { ROOT = { force_host = PREV } }

				if = { #Notify employer that councillor is going into seclusion
					limit = {
						is_councillor = yes
						#liege = { ai = no }
					}
					liege = { character_event = { id = RIP.12100 days = 1 } }
				}
			}

			if = {
				limit = { has_character_modifier = secluded_revelry }
				remove_character_modifier = secluded_revelry
			}
			if = {
				limit = { has_character_modifier = savoring_the_end_days }
				remove_character_modifier = savoring_the_end_days
			}
		}
		ai_will_do = {
			factor = 0.3

			modifier = {
				factor = 0
				capital_scope = {
					OR = {
						has_epidemic = yes
						any_neighbor_province = { has_epidemic = yes }
					}
				}
				NOT = { has_character_modifier = starving_food_shortage }
			}
			modifier = {
				factor = 0.5
				trait = paranoid
			}
			modifier = {
				factor = 3
				trait = brave
			}
			modifier = {
				factor = 3
				capital_scope = { has_disease = no }
			}
			modifier = {
				factor = 3
				has_character_modifier = starving_food_shortage
				NOT = {
					capital_scope = { disease = bubonic_plague }
				}
			}
		}
	}
}

title_decisions = {
	build_hospital = {
		only_playable = yes
		hide_in_decisions_list = yes		# player can build hospitals from the province view
		filter = sub_realm_owned
		ai_target_filter = sub_realm_owned
		ai_check_interval = 36

		from_potential = {					# scope: character who is building
			ai = yes
			is_playable = yes
			has_dlc = "Reapers"
			war = no
			wealth = 200 # Was 600
		}
		potential = {
			tier = COUNT
			has_hospital = no
			has_siege = no
			is_occupied = no
		}
		effect = {
			location = { build_holding = { type = hospital } }
		}
		ai_will_do = {
			factor = 0.1

			modifier = {
				factor = 0.1
				NOT = { owner = { character = FROM } } # Was owner = { independent = no }
			}
			modifier = {
				factor = 0.1
				owner = { trait = greedy }
			}
			modifier = {
				factor = 0.1
				owner = { trait = arbitrary }
			}
			modifier = {
				factor = 0.1
				owner = { trait = slothful }
			}
			modifier = {
				factor = 0.1
				owner = { trait = zealous }
			}
			modifier = {
				factor = 0.1
				owner = { NOT = { ai_ambition = -39 } }
			}
			modifier = {
				factor = 5
				owner = { has_character_flag = seen_the_light_of_modern_medicine }
			}
			modifier = {
				factor = 2
				is_capital = yes
			}
			modifier = {
				factor = 2
				owner = {
					OR = {
						is_ill = yes
						num_of_symptoms > 0
					}
				}
			}
			modifier = {
				factor = 2
				owner = { trait = charitable }
			}
			modifier = {
				factor = 2
				owner = { trait = diligent }
			}
			modifier = {
				factor = 2
				owner = { trait = kind }
			}
			modifier = {
				factor = 2
				owner = { trait = erudite }
			}
			modifier = {
				factor = 2
				owner = { wealth = 400 }
			}
			modifier = {
				factor = 2
				location = { has_disease = yes }
			}
		}
	}
}

